[gd_scene load_steps=4 format=2]

[ext_resource path="res://grafikajxoj/arbajxoj/malantaua_arbo.png" type="Texture" id=1]
[ext_resource path="res://grafikajxoj/arbajxoj/arbo_normalmapo.png" type="Texture" id=2]
[ext_resource path="res://skriptoj/z_indekso.gd" type="Script" id=3]

[node name="arbo" type="Sprite"]

position = Vector2( 0.0114899, -42 )
z_index = 50
texture = ExtResource( 1 )
normal_map = ExtResource( 2 )
script = ExtResource( 3 )
_sections_unfolded = [ "Z Index" ]


