[gd_scene load_steps=2 format=2]

[ext_resource path="res://grafikajxoj/arbajxoj/arbusto_01.png" type="Texture" id=1]

[node name="arbusto_01" type="Sprite"]

position = Vector2( 4.48248, -18.6175 )
z_index = -1
texture = ExtResource( 1 )
normal_map = ExtResource( 1 )
_sections_unfolded = [ "Z Index" ]


