[gd_scene load_steps=6 format=2]

[sub_resource type="Gradient" id=1]

offsets = PoolRealArray( 0, 0.415929, 1 )
colors = PoolColorArray( 1, 1, 1, 1, 1, 0.616704, 0.123894, 0.694902, 1, 0, 0, 0.118667 )

[sub_resource type="GradientTexture" id=2]

flags = 4
gradient = SubResource( 1 )
width = 2048

[sub_resource type="Curve" id=3]

min_value = 0.0
max_value = 1.0
bake_resolution = 100
_data = [ Vector2( 0, 1 ), 0.0, 3.68418, 0, 0, Vector2( 1, 0.467773 ), 0.0, 0.0, 0, 0 ]

[sub_resource type="CurveTexture" id=4]

flags = 4
width = 2048
curve = SubResource( 3 )

[sub_resource type="ParticlesMaterial" id=5]

render_priority = 0
trail_divisor = 1
emission_shape = 1
emission_sphere_radius = 5.0
flag_align_y = false
flag_rotate_y = false
flag_disable_z = true
spread = 20.0
flatness = 0.0
gravity = Vector3( 0, 0, 0 )
initial_velocity = 100.0
initial_velocity_random = 0.0
angular_velocity = 100.44
angular_velocity_random = 1.0
orbit_velocity = 0.0
orbit_velocity_random = 0.0
linear_accel = 0.0
linear_accel_random = 0.0
radial_accel = 0.0
radial_accel_random = 0.0
tangential_accel = 0.0
tangential_accel_random = 0.0
damping = 0.0
damping_random = 0.0
angle = 45.0
angle_random = 0.22
scale = 12.08
scale_random = 0.43
scale_curve = SubResource( 4 )
color_ramp = SubResource( 2 )
hue_variation = 0.0
hue_variation_random = 0.0
anim_speed = 0.0
anim_speed_random = 0.0
anim_offset = 0.0
anim_offset_random = 0.0
anim_loop = false
_sections_unfolded = [ "Angle", "Angular Velocity", "Color", "Emission Shape", "Gravity", "Initial Velocity", "Scale", "Spread" ]

[node name="fajro_partikloj" type="Particles2D"]

rotation = -1.57178
emitting = true
amount = 40
lifetime = 1.0
one_shot = false
preprocess = 0.0
speed_scale = 1.0
explosiveness = 0.0
randomness = 0.0
fixed_fps = 0
fract_delta = true
visibility_rect = Rect2( -100, -100, 200, 200 )
local_coords = true
draw_order = 0
process_material = SubResource( 5 )
texture = null
normal_map = null
h_frames = 1
v_frames = 1
_sections_unfolded = [ "Process Material" ]


